Projet Aéroports – regex
…
base_raw_html <- read_html(x = URL)
base_html_table <- html_elements(x = base_raw_html, css = "table")
base_tables <- html_table(x = base_html_table)

# base_table <- rbind(base_tables[[1]], base_tables[[2]], base_tables[[3]])

⚠️ Erreur! Une colonne n’est pas nommée de façon identique, donc ne fonctionne pas… Corrigeons la situation

names(base_tables[[3]])[1] <- "Province/Territoire"

base_table <- rbind(base_tables[[1]], base_tables[[2]], base_tables[[3]])

base_table

# A tibble: 44 × 3
   `Province/Territoire`  Aéroport                `Exploité par`                
   <chr>                  <chr>                   <chr>                         
 1 "Colombie-Britannique" Penticton               "Transports Canada\n\t\t\t#10…
 2 ""                     Port Hardy              "Transports Canada\n\t\t\tC.P…
 3 ""                     Sandspit                "Transports Canada\n\t\t\tC.P…
 4 ""                     Havre de Victoria       "Transports Canada\n\t\t\t12,…
 5 "Manitoba"             Churchill               "Transports Canada\n\t\t\tC.P…
 6 "Québec"               Chevery                 "Municipalité de la Côte-Nord…
 7 ""                     Lourdes-de-Blanc-Sablon "Transports Canada\n\t\t\tAir…
 8 ""                     Sept-Îles               "Transports Canada\n\t\t\t100…
 9 ""                     Natashquan              "Municipalité de Natashquan\n…
10 ""                     Eastmain River          "Transports Canada\n\t\t\ta/s…
# … with 34 more rows
…
